silveroak-opentitan/aes/Impl/aes_add_round_key_tb.vcd
$version Generated by VerilatedVcd $end
$date Tue Oct  5 17:53:09 2021
 $end
$timescale 1ns $end

 $scope module TOP $end
  $var wire  1 h$ clk $end
  $scope module aes_add_round_key_tb $end
   $var wire  1 h$ clk $end
   $var wire 128 #$ data_i [127:0] $end
   $var wire 128 A! data_i_vectors(0) [127:0] $end
   $var wire 128 E! data_i_vectors(1) [127:0] $end
   $var wire 128 i! data_i_vectors(10) [127:0] $end
   $var wire 128 m! data_i_vectors(11) [127:0] $end
   $var wire 128 q! data_i_vectors(12) [127:0] $end
   $var wire 128 u! data_i_vectors(13) [127:0] $end
   $var wire 128 y! data_i_vectors(14) [127:0] $end
   $var wire 128 }! data_i_vectors(15) [127:0] $end
   $var wire 128 #" data_i_vectors(16) [127:0] $end
   $var wire 128 '" data_i_vectors(17) [127:0] $end
   $var wire 128 +" data_i_vectors(18) [127:0] $end
   $var wire 128 /" data_i_vectors(19) [127:0] $end
   $var wire 128 I! data_i_vectors(2) [127:0] $end
   $var wire 128 3" data_i_vectors(20) [127:0] $end
   $var wire 128 7" data_i_vectors(21) [127:0] $end
   $var wire 128 ;" data_i_vectors(22) [127:0] $end
   $var wire 128 ?" data_i_vectors(23) [127:0] $end
   $var wire 128 C" data_i_vectors(24) [127:0] $end
   $var wire 128 G" data_i_vectors(25) [127:0] $end
   $var wire 128 K" data_i_vectors(26) [127:0] $end
   $var wire 128 O" data_i_vectors(27) [127:0] $end
   $var wire 128 S" data_i_vectors(28) [127:0] $end
   $var wire 128 W" data_i_vectors(29) [127:0] $end
   $var wire 128 M! data_i_vectors(3) [127:0] $end
   $var wire 128 [" data_i_vectors(30) [127:0] $end
   $var wire 128 Q! data_i_vectors(4) [127:0] $end
   $var wire 128 U! data_i_vectors(5) [127:0] $end
   $var wire 128 Y! data_i_vectors(6) [127:0] $end
   $var wire 128 ]! data_i_vectors(7) [127:0] $end
   $var wire 128 a! data_i_vectors(8) [127:0] $end
   $var wire 128 e! data_i_vectors(9) [127:0] $end
   $var wire 128 P$ data_o [127:0] $end
   $var wire 128 _" data_o_vectors(0) [127:0] $end
   $var wire 128 c" data_o_vectors(1) [127:0] $end
   $var wire 128 )# data_o_vectors(10) [127:0] $end
   $var wire 128 -# data_o_vectors(11) [127:0] $end
   $var wire 128 1# data_o_vectors(12) [127:0] $end
   $var wire 128 5# data_o_vectors(13) [127:0] $end
   $var wire 128 9# data_o_vectors(14) [127:0] $end
   $var wire 128 =# data_o_vectors(15) [127:0] $end
   $var wire 128 A# data_o_vectors(16) [127:0] $end
   $var wire 128 E# data_o_vectors(17) [127:0] $end
   $var wire 128 I# data_o_vectors(18) [127:0] $end
   $var wire 128 M# data_o_vectors(19) [127:0] $end
   $var wire 128 g" data_o_vectors(2) [127:0] $end
   $var wire 128 Q# data_o_vectors(20) [127:0] $end
   $var wire 128 U# data_o_vectors(21) [127:0] $end
   $var wire 128 Y# data_o_vectors(22) [127:0] $end
   $var wire 128 ]# data_o_vectors(23) [127:0] $end
   $var wire 128 a# data_o_vectors(24) [127:0] $end
   $var wire 128 e# data_o_vectors(25) [127:0] $end
   $var wire 128 i# data_o_vectors(26) [127:0] $end
   $var wire 128 m# data_o_vectors(27) [127:0] $end
   $var wire 128 q# data_o_vectors(28) [127:0] $end
   $var wire 128 u# data_o_vectors(29) [127:0] $end
   $var wire 128 k" data_o_vectors(3) [127:0] $end
   $var wire 128 y# data_o_vectors(30) [127:0] $end
   $var wire 128 o" data_o_vectors(4) [127:0] $end
   $var wire 128 s" data_o_vectors(5) [127:0] $end
   $var wire 128 w" data_o_vectors(6) [127:0] $end
   $var wire 128 {" data_o_vectors(7) [127:0] $end
   $var wire 128 !# data_o_vectors(8) [127:0] $end
   $var wire 128 %# data_o_vectors(9) [127:0] $end
   $var wire 32 '$ i_cava [31:0] $end
   $var wire 128 }# key_i [127:0] $end
   $var wire 128 # key_i_vectors(0) [127:0] $end
   $var wire 128 ' key_i_vectors(1) [127:0] $end
   $var wire 128 K key_i_vectors(10) [127:0] $end
   $var wire 128 O key_i_vectors(11) [127:0] $end
   $var wire 128 S key_i_vectors(12) [127:0] $end
   $var wire 128 W key_i_vectors(13) [127:0] $end
   $var wire 128 [ key_i_vectors(14) [127:0] $end
   $var wire 128 _ key_i_vectors(15) [127:0] $end
   $var wire 128 c key_i_vectors(16) [127:0] $end
   $var wire 128 g key_i_vectors(17) [127:0] $end
   $var wire 128 k key_i_vectors(18) [127:0] $end
   $var wire 128 o key_i_vectors(19) [127:0] $end
   $var wire 128 + key_i_vectors(2) [127:0] $end
   $var wire 128 s key_i_vectors(20) [127:0] $end
   $var wire 128 w key_i_vectors(21) [127:0] $end
   $var wire 128 { key_i_vectors(22) [127:0] $end
   $var wire 128 !! key_i_vectors(23) [127:0] $end
   $var wire 128 %! key_i_vectors(24) [127:0] $end
   $var wire 128 )! key_i_vectors(25) [127:0] $end
   $var wire 128 -! key_i_vectors(26) [127:0] $end
   $var wire 128 1! key_i_vectors(27) [127:0] $end
   $var wire 128 5! key_i_vectors(28) [127:0] $end
   $var wire 128 9! key_i_vectors(29) [127:0] $end
   $var wire 128 / key_i_vectors(3) [127:0] $end
   $var wire 128 =! key_i_vectors(30) [127:0] $end
   $var wire 128 3 key_i_vectors(4) [127:0] $end
   $var wire 128 7 key_i_vectors(5) [127:0] $end
   $var wire 128 ; key_i_vectors(6) [127:0] $end
   $var wire 128 ? key_i_vectors(7) [127:0] $end
   $var wire 128 C key_i_vectors(8) [127:0] $end
   $var wire 128 G key_i_vectors(9) [127:0] $end
   $var wire  1 i$ rst $end
   $scope module aes_add_round_key_inst $end
    $var wire 128 #$ data_i [127:0] $end
    $var wire 128 P$ data_o [127:0] $end
    $var wire 128 }# key_i [127:0] $end
    $var wire 32 ($ v0 [31:0] $end
    $var wire 32 )$ v1 [31:0] $end
    $var wire  8 2$ v10 [7:0] $end
    $var wire  8 3$ v11 [7:0] $end
    $var wire  8 4$ v12 [7:0] $end
    $var wire  8 5$ v13 [7:0] $end
    $var wire  8 6$ v14 [7:0] $end
    $var wire  8 7$ v15 [7:0] $end
    $var wire  8 T$ v16 [7:0] $end
    $var wire  8 U$ v17 [7:0] $end
    $var wire  8 V$ v18 [7:0] $end
    $var wire  8 W$ v19 [7:0] $end
    $var wire 32 *$ v2 [31:0] $end
    $var wire 32 X$ v20 [31:0] $end
    $var wire  8 8$ v21 [7:0] $end
    $var wire  8 9$ v22 [7:0] $end
    $var wire  8 :$ v23 [7:0] $end
    $var wire  8 ;$ v24 [7:0] $end
    $var wire  8 <$ v25 [7:0] $end
    $var wire  8 =$ v26 [7:0] $end
    $var wire  8 >$ v27 [7:0] $end
    $var wire  8 ?$ v28 [7:0] $end
    $var wire  8 Y$ v29 [7:0] $end
    $var wire 32 +$ v3 [31:0] $end
    $var wire  8 Z$ v30 [7:0] $end
    $var wire  8 [$ v31 [7:0] $end
    $var wire  8 \$ v32 [7:0] $end
    $var wire 32 ]$ v33 [31:0] $end
    $var wire  8 @$ v34 [7:0] $end
    $var wire  8 A$ v35 [7:0] $end
    $var wire  8 B$ v36 [7:0] $end
    $var wire  8 C$ v37 [7:0] $end
    $var wire  8 D$ v38 [7:0] $end
    $var wire  8 E$ v39 [7:0] $end
    $var wire 32 ,$ v4 [31:0] $end
    $var wire  8 F$ v40 [7:0] $end
    $var wire  8 G$ v41 [7:0] $end
    $var wire  8 ^$ v42 [7:0] $end
    $var wire  8 _$ v43 [7:0] $end
    $var wire  8 `$ v44 [7:0] $end
    $var wire  8 a$ v45 [7:0] $end
    $var wire 32 b$ v46 [31:0] $end
    $var wire  8 H$ v47 [7:0] $end
    $var wire  8 I$ v48 [7:0] $end
    $var wire  8 J$ v49 [7:0] $end
    $var wire 32 -$ v5 [31:0] $end
    $var wire  8 K$ v50 [7:0] $end
    $var wire  8 L$ v51 [7:0] $end
    $var wire  8 M$ v52 [7:0] $end
    $var wire  8 N$ v53 [7:0] $end
    $var wire  8 O$ v54 [7:0] $end
    $var wire  8 c$ v55 [7:0] $end
    $var wire  8 d$ v56 [7:0] $end
    $var wire  8 e$ v57 [7:0] $end
    $var wire  8 f$ v58 [7:0] $end
    $var wire 32 g$ v59 [31:0] $end
    $var wire 32 .$ v6 [31:0] $end
    $var wire 128 P$ v60 [127:0] $end
    $var wire 32 /$ v7 [31:0] $end
    $var wire  8 0$ v8 [7:0] $end
    $var wire  8 1$ v9 [7:0] $end
   $upscope $end
  $upscope $end
 $upscope $end
$enddefinitions $end


#5
b01001100001100010010011000101101000000010000000100000001000000010101110000100010000010101111001001000101010100110001001111011011 #
b00001111000010110000011100000011000011100000101000000110000000100000110100001001000001010000000100001100000010000000010000000000 '
b00011111000110110001011100010011000111100001101000010110000100100001110100011001000101010001000100011100000110000001010000010000 +
b10011100100100111001100010011111110000001100111011000100110000100111001001111111011101100111001110100101101010011010000110100101 /
b11011110110000011101101011001101101110101010010010111110101010000100000001011101010001000101000100000110000110100000001000010110 3
b01100111111110110110100011110000000101011101010100011011110111111111110010001110111100011000011100000011101001100000111110101110 7
b10001101010100111001001001001000010100011110101101001111111100011011100011111000101001011110000101110011011101010110111101101101 ;
b10001011111011000001011101111111010110010100110010011001100000101101010100101001101001110101011001101100011011111100100111000110 ?
b00111001101101001110011101110101110011111001111001110101001110100000011110111111010001111110001001010100001001110101001000111101 C
b00101111101001000100100001011111000111000100010100001001100100001000011101010010011110111101110011000001101011011100001000001011 G
b00001010001100111000011101100000100000100100110111010011101001100000101000001101101100101111010101100100001100000001011101000101 K
b11011111111100000101010000011100101001111011101111111110111101110110000111100110101101001100111111010010000100111011111001111100 O
b01000000010010100111100111111110111001100110010000101001111110101010111110100101101010000001101010110011110101111110011111110000 S
b00001010110101010010010101110001000111001011101100000000111111100111001000010011111101010100000101011010100010001001101100100101 W
b11101010101010101110000010011001110011010010101101001111011001101111100001010111111100100101101011001101011111101010100101001110 [
b00110110001111001110100111001100110111101100001001111001011110010110100000011010000010011111110001101101001101111011111100100100 _
b00110110001111001110100111001100110111101100001001111001011110010110100000011010000010011111110001101101001101111011111100100100 c
b01101110010111110010111111111111000000011110001010101010110100010101100011101001110011101111000100100101111111001011111100110100 g
b10000100010001100000101011101011111001101011011100110101010010001000000001110001010011000001011011011100011101010011100001011110 k
b00110001011100001101000010000000111000110100100001111011000001011011000100100111001111111010001111011001010000111000101111001000 o
b11000010010011001110000100010011010100011000001001111101100011101111000100111101010110100111000010101001010011010110011010110101 s
b01000001101000000101000010100011101010110011001101111110011110111001011000011000100111001101101010011010110010000100001101110100 w
b10001110101011011111001000010101110100111111111111110011100101111100110001100111001010101010011011100100001010111101001100111100 {
b11100001111100001111001111110011100110000100110100000101110001001000111010000100010001100101111101010010100010110011011111111000 !!
b00100011010111111110011110011010001011000000110001100100010000001010101101001101100011000110100111001111111110001110111111011110 %!
b00010001000000110000000000010110110101010100100011000001010110000000101011000010000110011101010111011001101111001100111110101110 )!
b01111100101110000111110110111101001000000110100000100100011010001110011011000001111001011100011000110111000101110011000100010101 -!
b00010010000000110001011000001111100111011000100110011001100001011100100011011011110011001101011101100101011100110110000101111111 1!
b11000100110001011100000011001001010010000100110001001100010000000010011100100100001000110010100000100000001001100010010000101010 5!
b00010001000101010001100100011101000101000001000000011100000110000001001100010111000110110001111100010110000100100001111000011010 9!
b00001111000010110000011100000011000011100000101000000110000000100000110100001001000001010000000100001100000010000000010000000000 =!
b01001100001100010010011000101101000000010000000100000001000000010101110000100010000010101111001001000101010100110001001111011011 A!
b11111111101110110111011100110011111011101010101001100110001000101101110110011001010101010001000111001100100010000100010000000000 E!
b00011010001010011001001000010101111110010011101110111100011001001011100110111110111101010111001000011101111101110101011101011111 I!
b10010101001111100011100001011101101000010100010011000100001110010101110110010010011010100010101001100001110100010010101110111101 M!
b10111101000111100111001000001100101101011000110010000001110011101010000101100111110110110000110110001000101100111100100110000001 Q!
b00110011001110100010011110000001000000000001000011111011001011011000110010101111111001101000001000000111010111111010101110110010 U!
b01110111011110110010001010101001110010000101011011111000010110110110010000111111111000001011011011011011110101110111010010101110 Y!
b11000111101100010010100100111100100011001100110110111101110000111010000000100101111010010101000111101111101011100000001010111001 ]!
b01000100111010011110100000011100100100010011010111001001100111100110101101110101111001111011000111101101011111010011111011101011 a!
b11101010001011000011010101100110101001011110011010000100110010000111010010110011101010010111010010101001101010001001110101010001 e!
b11000011001111111100000000110001011010101010100010101101111011101111100100110000110011000111011101001110010101001101001000001111 i!
b00110011110000011111010011101010000100100001000111000100111100000011001100001111100011111000011011101001011000110111010010111101 m!
b00010011111011011101001101000001100100001111101100011101100100001100100011100101011011101000011011010101100001110101110110101111 q!
b00101011001100010010011011100100001110010011110110010101111110101110000011101000101001100010011101011011100111001101100001110100 u!
b01001111010111100100101000100000101000001100011100010101101010000000110100010010011011110010000111101110101101110011000000101100 y!
b10111111101011000101011000000110101111101000101100111100110011100010000111100110011011100101111000100110110111011110111010101010 }!
b10001001100100001011111111001010011000000100100101000101101101110100100111111100011001111010001001001011111010100101000110001110 #"
b00000111001001000000010100000010001010110001000010010101100101010110101110100110110000010001110001011001000001101010010111100101 '"
b11011000111010100000001000000110111111101011010100001101100100110101111011110100010001011010001011101111001001101100110010010001 +"
b11110110100100001001001001001110011000111000110110101110101010011000101000100111001000010100000100111011000100101111111110110000 /"
b00111100111011000011000011001110101000101101000011100110010101111110001000110000011111011000001101001100000011101100000001100011 3"
b10000101010111110100001000000101111101100101100100101000011100010101010000010101011001000110111111011111101000111000110011001010 7"
b11000010110110110000101111101010101101101011011010101011111101010010000100110111010111100100011010110010100101011000001111001010 ;"
b10101101010000101110100111011010101011101100111000000110110010000100101100011001101110000111000010111110111100110010100000101010 ?"
b00010111101110000001111110110111100001011010000010001010001110101111000011001011010010100000011100001101110000100100000011110000 C"
b01101001100001111010001100110110001101001100000110011000111111100110000110010011111001000010010100101011001001011000011000110010 G"
b11100010011110100000010101000110010101010101101101010010010111001010110000111001011001010001110100101110110001000010111010011101 K"
b10000111111000110011001100001110111111101000011001110110111110110000001111001110100110010100101101111001110011110001111111010010 O"
b11100111010100101010111110100010111001000111010011011000101111011101110001101101011111111100100101011100111110010011111010101110 S"
b11110110010001000001110110010001110001001010011111111101111110001101100101100111011110110100110010101100110111110001011101111001 W"
b11110000101100000111000000110000111000001010000001100000001000001101000010010000010100000001000011000000100000000100000000000000 ["
b00000000000000000000000000000000000000000000000000000000000000000000000000000000000000000000000000000000000000000000000000000000 _"
b11110000101100000111000000110000111000001010000001100000001000001101000010010000010100000001000011000000100000000100000000000000 c"
b00000101001100101000010100000110111001110010000110101010011101101010010010100111111000000110001100000001111011110100001101001111 g"
b00001001101011011010000011000010011000011000101000000000111110110010111111101101000111000101100111000100011110001000101000011000 k"
b01100011110111111010100011000001000011110010100000111111011001101110000100111010100111110101110010001110101010011100101110010111 o"
b01010100110000010100111101110001000101011100010111100000111100100111000000100001000101110000010100000100111110011010010000011100 s"
b11111010001010001011000011100001100110011011110110110111101010101101110011000111010001010101011110101000101000100001101111000011 w"
b01001100010111010011111001000011110101011000000100100100010000010111010100001100010011100000011110000011110000011100101101111111 {"
b01111101010111010000111101101001010111101010101110111100101001000110110011001010101000000101001110111001010110100110110011010110 !#
b11000101100010000111110100111001101110011010001110001101010110001111001111100001110100101010100001101000000001010101111101011010 %#
b11001001000011000100011101010001111010001110010101111110010010001111001100111101011111101000001000101010011001001100010101001010 )#
b11101100001100011010000011110110101101011010101000111010000001110101001011101001001110110100100100111011011100001100101011000001 -#
b01010011101001111010101010111111011101101001111100110100011010100110011101000000110001101001110001100110010100001011101001011111 1#
b00100001111001000000001110010101001001011000011010010101000001001001001011111011010100110110011000000001000101000100001101010001 5#
b10100101111101001010101010111001011011011110110001011010110011101111010101000101100111010111101100100011110010011001100101100010 9#
b10001001100100001011111111001010011000000100100101000101101101110100100111111100011001111010001001001011111010100101000110001110 =#
b10111111101011000101011000000110101111101000101100111100110011100010000111100110011011100101111000100110110111011110111010101010 A#
b01101001011110110010101011111101001010101111001000111111010001000011001101001111000011111110110101111100111110100001101011010001 E#
b01011100101011000000100011101101000110000000001000111000110110111101111010000101000010011011010000110011010100111111010011001111 I#
b11000111111000000100001011001110100000001100010111010101101011000011101100000000000111101110001011100010010100010111010001111000 M#
b11111110101000001101000111011101111100110101001010011011110110010001001100001101001001111111001111100101010000111010011011010110 Q#
b11000100111111110001001010100110010111010110101001010110000010101100001000001101111110001011010101000101011010111100111110111110 U#
b01001100011101101111100111111111011001010100100101011000011000101110110101010000011101001110000001010110101111100101000011110110 Y#
b01001100101100100001101000101001001101101000001100000011000011001100010110011101111111100010111111101100011110000001111111010010 ]#
b00110100111001111111100000101101101010011010110011101110011110100101101110000110110001100110111011000010001110101010111100101110 a#
b01111000100001001010001100100000111000011000100101011001101001100110101101010001111111011111000011110010100110010100100110011100 e#
b10011110110000100111100011111011011101010011001101110110001101000100101011111000100000001101101100011001110100110001111110001000 i#
b10010101111000000010010100000001011000110000111111101111011111101100101100010101010101011001110000011100101111000111111010101101 m#
b00100011100101110110111101101011101011000011100010010100111111011111101101001001010111001110000101111100110111110001101010000100 q#
b11100111010100010000010010001100110100001011011111100001111000001100101001110000011000000101001110111010110011010000100101100011 u#
b11111111101110110111011100110011111011101010101001100110001000101101110110011001010101010001000111001100100010000100010000000000 y#
b01001100001100010010011000101101000000010000000100000001000000010101110000100010000010101111001001000101010100110001001111011011 }#
b01001100001100010010011000101101000000010000000100000001000000010101110000100010000010101111001001000101010100110001001111011011 #$
b00000000000000000000000000000000 '$
b01000101010100110001001111011011 ($
b01011100001000100000101011110010 )$
b00000001000000010000000100000001 *$
b01001100001100010010011000101101 +$
b01000101010100110001001111011011 ,$
b01011100001000100000101011110010 -$
b00000001000000010000000100000001 .$
b01001100001100010010011000101101 /$
b11011011 0$
b00010011 1$
b01010011 2$
b01000101 3$
b11011011 4$
b00010011 5$
b01010011 6$
b01000101 7$
b11110010 8$
b00001010 9$
b00100010 :$
b01011100 ;$
b11110010 <$
b00001010 =$
b00100010 >$
b01011100 ?$
b00000001 @$
b00000001 A$
b00000001 B$
b00000001 C$
b00000001 D$
b00000001 E$
b00000001 F$
b00000001 G$
b00101101 H$
b00100110 I$
b00110001 J$
b01001100 K$
b00101101 L$
b00100110 M$
b00110001 N$
b01001100 O$
b00000000000000000000000000000000000000000000000000000000000000000000000000000000000000000000000000000000000000000000000000000000 P$
b00000000 T$
b00000000 U$
b00000000 V$
b00000000 W$
b00000000000000000000000000000000 X$
b00000000 Y$
b00000000 Z$
b00000000 [$
b00000000 \$
b00000000000000000000000000000000 ]$
b00000000 ^$
b00000000 _$
b00000000 `$
b00000000 a$
b00000000000000000000000000000000 b$
b00000000 c$
b00000000 d$
b00000000 e$
b00000000 f$
b00000000000000000000000000000000 g$
0h$
0i$
#10
b00001111000010110000011100000011000011100000101000000110000000100000110100001001000001010000000100001100000010000000010000000000 }#
b11111111101110110111011100110011111011101010101001100110001000101101110110011001010101010001000111001100100010000100010000000000 #$
b00000000000000000000000000000001 '$
b00001100000010000000010000000000 ($
b00001101000010010000010100000001 )$
b00001110000010100000011000000010 *$
b00001111000010110000011100000011 +$
b11001100100010000100010000000000 ,$
b11011101100110010101010100010001 -$
b11101110101010100110011000100010 .$
b11111111101110110111011100110011 /$
b00000000 0$
b00000100 1$
b00001000 2$
b00001100 3$
b00000000 4$
b01000100 5$
b10001000 6$
b11001100 7$
b00000001 8$
b00000101 9$
b00001001 :$
b00001101 ;$
b00010001 <$
b01010101 =$
b10011001 >$
b11011101 ?$
b00000010 @$
b00000110 A$
b00001010 B$
b00001110 C$
b00100010 D$
b01100110 E$
b10101010 F$
b11101110 G$
b00000011 H$
b00000111 I$
b00001011 J$
b00001111 K$
b00110011 L$
b01110111 M$
b10111011 N$
b11111111 O$
b11110000101100000111000000110000111000001010000001100000001000001101000010010000010100000001000011000000100000000100000000000000 P$
b01000000 U$
b10000000 V$
b11000000 W$
b11000000100000000100000000000000 X$
b00010000 Y$
b01010000 Z$
b10010000 [$
b11010000 \$
b11010000100100000101000000010000 ]$
b00100000 ^$
b01100000 _$
b10100000 `$
b11100000 a$
b11100000101000000110000000100000 b$
b00110000 c$
b01110000 d$
b10110000 e$
b11110000 f$
b11110000101100000111000000110000 g$
1h$
#15
0h$
#20
b00011111000110110001011100010011000111100001101000010110000100100001110100011001000101010001000100011100000110000001010000010000 }#
b00011010001010011001001000010101111110010011101110111100011001001011100110111110111101010111001000011101111101110101011101011111 #$
b00000000000000000000000000000010 '$
b00011100000110000001010000010000 ($
b00011101000110010001010100010001 )$
b00011110000110100001011000010010 *$
b00011111000110110001011100010011 +$
b00011101111101110101011101011111 ,$
b10111001101111101111010101110010 -$
b11111001001110111011110001100100 .$
b00011010001010011001001000010101 /$
b00010000 0$
b00010100 1$
b00011000 2$
b00011100 3$
b01011111 4$
b01010111 5$
b11110111 6$
b00011101 7$
b00010001 8$
b00010101 9$
b00011001 :$
b00011101 ;$
b01110010 <$
b11110101 =$
b10111110 >$
b10111001 ?$
b00010010 @$
b00010110 A$
b00011010 B$
b00011110 C$
b01100100 D$
b10111100 E$
b00111011 F$
b11111001 G$
b00010011 H$
b00010111 I$
b00011011 J$
b00011111 K$
b00010101 L$
b10010010 M$
b00101001 N$
b00011010 O$
b00000101001100101000010100000110111001110010000110101010011101101010010010100111111000000110001100000001111011110100001101001111 P$
b01001111 T$
b01000011 U$
b11101111 V$
b00000001 W$
b00000001111011110100001101001111 X$
b01100011 Y$
b11100000 Z$
b10100111 [$
b10100100 \$
b10100100101001111110000001100011 ]$
b01110110 ^$
b10101010 _$
b00100001 `$
b11100111 a$
b11100111001000011010101001110110 b$
b00000110 c$
b10000101 d$
b00110010 e$
b00000101 f$
b00000101001100101000010100000110 g$
1h$
#25
0h$
#30
b10011100100100111001100010011111110000001100111011000100110000100111001001111111011101100111001110100101101010011010000110100101 }#
b10010101001111100011100001011101101000010100010011000100001110010101110110010010011010100010101001100001110100010010101110111101 #$
b00000000000000000000000000000011 '$
b10100101101010011010000110100101 ($
b01110010011111110111011001110011 )$
b11000000110011101100010011000010 *$
b10011100100100111001100010011111 +$
b01100001110100010010101110111101 ,$
b01011101100100100110101000101010 -$
b10100001010001001100010000111001 .$
b10010101001111100011100001011101 /$
b10100101 0$
b10100001 1$
b10101001 2$
b10100101 3$
b10111101 4$
b00101011 5$
b11010001 6$
b01100001 7$
b01110011 8$
b01110110 9$
b01111111 :$
b01110010 ;$
b00101010 <$
b01101010 =$
b10010010 >$
b01011101 ?$
b11000010 @$
b11000100 A$
b11001110 B$
b11000000 C$
b00111001 D$
b11000100 E$
b01000100 F$
b10100001 G$
b10011111 H$
b10011000 I$
b10010011 J$
b10011100 K$
b01011101 L$
b00111000 M$
b00111110 N$
b10010101 O$
b00001001101011011010000011000010011000011000101000000000111110110010111111101101000111000101100111000100011110001000101000011000 P$
b00011000 T$
b10001010 U$
b01111000 V$
b11000100 W$
b11000100011110001000101000011000 X$
b01011001 Y$
b00011100 Z$
b11101101 [$
b00101111 \$
b00101111111011010001110001011001 ]$
b11111011 ^$
b00000000 _$
b10001010 `$
b01100001 a$
b01100001100010100000000011111011 b$
b11000010 c$
b10100000 d$
b10101101 e$
b00001001 f$
b00001001101011011010000011000010 g$
1h$
#35
0h$
#40
b11011110110000011101101011001101101110101010010010111110101010000100000001011101010001000101000100000110000110100000001000010110 }#
b10111101000111100111001000001100101101011000110010000001110011101010000101100111110110110000110110001000101100111100100110000001 #$
b00000000000000000000000000000100 '$
b00000110000110100000001000010110 ($
b01000000010111010100010001010001 )$
b10111010101001001011111010101000 *$
b11011110110000011101101011001101 +$
b10001000101100111100100110000001 ,$
b10100001011001111101101100001101 -$
b10110101100011001000000111001110 .$
b10111101000111100111001000001100 /$
b00010110 0$
b00000010 1$
b00011010 2$
b00000110 3$
b10000001 4$
b11001001 5$
b10110011 6$
b10001000 7$
b01010001 8$
b01000100 9$
b01011101 :$
b01000000 ;$
b00001101 <$
b11011011 =$
b01100111 >$
b10100001 ?$
b10101000 @$
b10111110 A$
b10100100 B$
b10111010 C$
b11001110 D$
b10000001 E$
b10001100 F$
b10110101 G$
b11001101 H$
b11011010 I$
b11000001 J$
b11011110 K$
b00001100 L$
b01110010 M$
b00011110 N$
b10111101 O$
b01100011110111111010100011000001000011110010100000111111011001101110000100111010100111110101110010001110101010011100101110010111 P$
b10010111 T$
b11001011 U$
b10101001 V$
b10001110 W$
b10001110101010011100101110010111 X$
b01011100 Y$
b10011111 Z$
b00111010 [$
b11100001 \$
b11100001001110101001111101011100 ]$
b01100110 ^$
b00111111 _$
b00101000 `$
b00001111 a$
b00001111001010000011111101100110 b$
b11000001 c$
b10101000 d$
b11011111 e$
b01100011 f$
b01100011110111111010100011000001 g$
1h$
#45
0h$
#50
b01100111111110110110100011110000000101011101010100011011110111111111110010001110111100011000011100000011101001100000111110101110 }#
b00110011001110100010011110000001000000000001000011111011001011011000110010101111111001101000001000000111010111111010101110110010 #$
b00000000000000000000000000000101 '$
b00000011101001100000111110101110 ($
b11111100100011101111000110000111 )$
b00010101110101010001101111011111 *$
b01100111111110110110100011110000 +$
b00000111010111111010101110110010 ,$
b10001100101011111110011010000010 -$
b00000000000100001111101100101101 .$
b00110011001110100010011110000001 /$
b10101110 0$
b00001111 1$
b10100110 2$
b00000011 3$
b10110010 4$
b10101011 5$
b01011111 6$
b00000111 7$
b10000111 8$
b11110001 9$
b10001110 :$
b11111100 ;$
b10000010 <$
b11100110 =$
b10101111 >$
b10001100 ?$
b11011111 @$
b00011011 A$
b11010101 B$
b00010101 C$
b00101101 D$
b11111011 E$
b00010000 F$
b00000000 G$
b11110000 H$
b01101000 I$
b11111011 J$
b01100111 K$
b10000001 L$
b00100111 M$
b00111010 N$
b00110011 O$
b01010100110000010100111101110001000101011100010111100000111100100111000000100001000101110000010100000100111110011010010000011100 P$
b00011100 T$
b10100100 U$
b11111001 V$
b00000100 W$
b00000100111110011010010000011100 X$
b00000101 Y$
b00010111 Z$
b00100001 [$
b01110000 \$
b01110000001000010001011100000101 ]$
b11110010 ^$
b11100000 _$
b11000101 `$
b00010101 a$
b00010101110001011110000011110010 b$
b01110001 c$
b01001111 d$
b11000001 e$
b01010100 f$
b01010100110000010100111101110001 g$
1h$
#55
0h$
#60
b10001101010100111001001001001000010100011110101101001111111100011011100011111000101001011110000101110011011101010110111101101101 }#
b01110111011110110010001010101001110010000101011011111000010110110110010000111111111000001011011011011011110101110111010010101110 #$
b00000000000000000000000000000110 '$
b01110011011101010110111101101101 ($
b10111000111110001010010111100001 )$
b01010001111010110100111111110001 *$
b10001101010100111001001001001000 +$
b11011011110101110111010010101110 ,$
b01100100001111111110000010110110 -$
b11001000010101101111100001011011 .$
b01110111011110110010001010101001 /$
b01101101 0$
b01101111 1$
b01110101 2$
b01110011 3$
b10101110 4$
b01110100 5$
b11010111 6$
b11011011 7$
b11100001 8$
b10100101 9$
b11111000 :$
b10111000 ;$
b10110110 <$
b11100000 =$
b00111111 >$
b01100100 ?$
b11110001 @$
b01001111 A$
b11101011 B$
b01010001 C$
b01011011 D$
b11111000 E$
b01010110 F$
b11001000 G$
b01001000 H$
b10010010 I$
b01010011 J$
b10001101 K$
b10101001 L$
b00100010 M$
b01111011 N$
b01110111 O$
b11111010001010001011000011100001100110011011110110110111101010101101110011000111010001010101011110101000101000100001101111000011 P$
b11000011 T$
b00011011 U$
b10100010 V$
b10101000 W$
b10101000101000100001101111000011 X$
b01010111 Y$
b01000101 Z$
b11000111 [$
b11011100 \$
b11011100110001110100010101010111 ]$
b10101010 ^$
b10110111 _$
b10111101 `$
b10011001 a$
b10011001101111011011011110101010 b$
b11100001 c$
b10110000 d$
b00101000 e$
b11111010 f$
b11111010001010001011000011100001 g$
1h$
#65
0h$
#70
b10001011111011000001011101111111010110010100110010011001100000101101010100101001101001110101011001101100011011111100100111000110 }#
b11000111101100010010100100111100100011001100110110111101110000111010000000100101111010010101000111101111101011100000001010111001 #$
b00000000000000000000000000000111 '$
b01101100011011111100100111000110 ($
b11010101001010011010011101010110 )$
b01011001010011001001100110000010 *$
b10001011111011000001011101111111 +$
b11101111101011100000001010111001 ,$
b10100000001001011110100101010001 -$
b10001100110011011011110111000011 .$
b11000111101100010010100100111100 /$
b11000110 0$
b11001001 1$
b01101111 2$
b01101100 3$
b10111001 4$
b00000010 5$
b10101110 6$
b11101111 7$
b01010110 8$
b10100111 9$
b00101001 :$
b11010101 ;$
b01010001 <$
b11101001 =$
b00100101 >$
b10100000 ?$
b10000010 @$
b10011001 A$
b01001100 B$
b01011001 C$
b11000011 D$
b10111101 E$
b11001101 F$
b10001100 G$
b01111111 H$
b00010111 I$
b11101100 J$
b10001011 K$
b00111100 L$
b00101001 M$
b10110001 N$
b11000111 O$
b01001100010111010011111001000011110101011000000100100100010000010111010100001100010011100000011110000011110000011100101101111111 P$
b01111111 T$
b11001011 U$
b11000001 V$
b10000011 W$
b10000011110000011100101101111111 X$
b00000111 Y$
b01001110 Z$
b00001100 [$
b01110101 \$
b01110101000011000100111000000111 ]$
b01000001 ^$
b00100100 _$
b10000001 `$
b11010101 a$
b11010101100000010010010001000001 b$
b01000011 c$
b00111110 d$
b01011101 e$
b01001100 f$
b01001100010111010011111001000011 g$
1h$
#75
0h$
